{
  "gammaAccess": {
    "url": "http://192.168.2.74:3000",
    "userName": "nilesh.virkar@acellere.com",
    "password": "gamma123"
  },
  "repositories": [
    {
      "repository": {
        "uid": "838a46c87e8d3acab9ab013633996daa",
        "projectName": "corona",
        "sources": {
          "baseDir": "/home/gitlab-runner/builds/49b66d11/0/Virkar/googletest",
          "files": [
            {
              "path": "/*",
              "action": "A"
            }
          ]
        },
        "languages": [
          "CPP"
        ]
      },
      "dataDir": "C:/temp2",
      "settings": {
        "duplication": {
          "enabled": false,
          "threshold": 150
        },
        "macros": "space-separated macros"
      },
      "modules": {
        "codeissues": [
          {
            "name": "cppcheck",
            "config": {
              "rules": [
                {
                  "ruleKey": "unusedVariable",
                  "enabled": true,
                  "parameters": [
                    {
                      "name": "local",
                      "value": false
                    }
                  ]
                }
              ]
            }
          }
        ]
      }
    }
  ]
}